<svg width="9" height="16" viewBox="0 0 9 16" fill="none" xmlns="http://www.w3.org/2000/svg">
<path d="M8.12132 8.70711C8.51184 8.31659 8.51184 7.68342 8.12132 7.2929L1.75736 0.928936C1.36683 0.538412 0.73367 0.538412 0.343146 0.928936C-0.0473786 1.31946 -0.0473786 1.95263 0.343146 2.34315L6 8L0.343146 13.6569C-0.0473786 14.0474 -0.0473786 14.6805 0.343146 15.0711C0.73367 15.4616 1.36683 15.4616 1.75736 15.0711L8.12132 8.70711ZM6 9H7.41421V7H6V9Z" fill="#E30016"/>
</svg>
