<svg width="83" height="16" viewBox="0 0 83 16" fill="none" xmlns="http://www.w3.org/2000/svg">
<path d="M82.7071 8.70711C83.0976 8.31659 83.0976 7.68342 82.7071 7.2929L76.3431 0.928939C75.9526 0.538415 75.3195 0.538414 74.9289 0.928939C74.5384 1.31946 74.5384 1.95263 74.9289 2.34315L80.5858 8.00001L74.9289 13.6569C74.5384 14.0474 74.5384 14.6806 74.9289 15.0711C75.3195 15.4616 75.9526 15.4616 76.3431 15.0711L82.7071 8.70711ZM-8.74228e-08 9L82 9.00001L82 7.00001L8.74228e-08 7L-8.74228e-08 9Z" fill="#919191"/>
</svg>
