<svg width="26" height="42" viewBox="0 0 26 42" fill="none" xmlns="http://www.w3.org/2000/svg">
<path d="M13 0.223389C5.8188 0.223389 0 6.01879 0 13.1974C0 25.6098 13 41.7974 13 41.7974C13 41.7974 26 25.6072 26 13.1974C26 6.02139 20.1812 0.223389 13 0.223389V0.223389ZM13 20.376C11.1382 20.376 9.35262 19.6364 8.03611 18.3199C6.7196 17.0034 5.98 15.2178 5.98 13.356C5.98 11.4942 6.7196 9.7086 8.03611 8.3921C9.35262 7.07559 11.1382 6.33599 13 6.33599C14.8618 6.33599 16.6474 7.07559 17.9639 8.3921C19.2804 9.7086 20.02 11.4942 20.02 13.356C20.02 15.2178 19.2804 17.0034 17.9639 18.3199C16.6474 19.6364 14.8618 20.376 13 20.376Z" fill="black"/>
</svg>
